Lab11/pm.vcd
$date
	Sat Apr  8 14:54:41 2017
$end
$version
	Icarus Verilog
$end
$timescale
	1s
$end
$scope module test $end
$var wire 32 ! PC [31:0] $end
$var reg 1 " clk $end
$var reg 1 # done $end
$var reg 1 $ reset $end
$var integer 32 % i [31:0] $end
$scope module pm $end
$var wire 1 & PCSrc $end
$var wire 1 " clk $end
$var wire 1 ' enable_flush $end
$var wire 1 ( forwardA $end
$var wire 1 ) forwardB $end
$var wire 1 $ reset $end
$var wire 1 * zero $end
$var wire 5 + wr_regnum_MW [4:0] $end
$var wire 5 , wr_regnum_DE [4:0] $end
$var wire 32 - wr_data [31:0] $end
$var wire 32 . select_data_MW [31:0] $end
$var wire 32 / select_data_DE [31:0] $end
$var wire 5 0 rt [4:0] $end
$var wire 5 1 rs [4:0] $end
$var wire 32 2 rdSelect_data [31:0] $end
$var wire 32 3 rd2_data [31:0] $end
$var wire 32 4 rd1_data [31:0] $end
$var wire 5 5 rd [4:0] $end
$var wire 6 6 opcode_DE [5:0] $end
$var wire 30 7 next_PC [31:2] $end
$var wire 32 8 load_data [31:0] $end
$var wire 32 9 inst_IF [31:0] $end
$var wire 32 : inst_DE [31:0] $end
$var wire 32 ; imm [31:0] $end
$var wire 6 < funct_DE [5:0] $end
$var wire 32 = alu_out_data_MW [31:0] $end
$var wire 32 > alu_out_data_DE [31:0] $end
$var wire 1 ? RegWrite_MW $end
$var wire 1 @ RegWrite_DE $end
$var wire 1 A RegDst $end
$var wire 30 B PC_target [31:2] $end
$var wire 30 C PC_plus4_IF [31:2] $end
$var wire 30 D PC_plus4_DE [31:2] $end
$var wire 32 E PC [31:0] $end
$var wire 1 F MemWrite $end
$var wire 1 G MemToReg_MW $end
$var wire 1 H MemToReg_DE $end
$var wire 1 I MemRead_MW $end
$var wire 1 J MemRead_DE $end
$var wire 32 K B_data [31:0] $end
$var wire 1 L BEQ $end
$var wire 1 M ALUSrc $end
$var wire 3 N ALUOp [2:0] $end
$scope module MemRead_PIPE $end
$var wire 1 " clk $end
$var wire 1 O enable $end
$var wire 1 ' reset $end
$var wire 1 J d $end
$var reg 1 I q $end
$upscope $end
$scope module MemToReg_PIPE $end
$var wire 1 " clk $end
$var wire 1 P enable $end
$var wire 1 ' reset $end
$var wire 1 H d $end
$var reg 1 G q $end
$upscope $end
$scope module PC_plus4_PIPE $end
$var wire 1 " clk $end
$var wire 1 Q enable $end
$var wire 1 ' reset $end
$var wire 30 R d [29:0] $end
$var reg 30 S q [29:0] $end
$upscope $end
$scope module PC_reg $end
$var wire 1 " clk $end
$var wire 1 T enable $end
$var wire 1 $ reset $end
$var wire 30 U d [29:0] $end
$var reg 30 V q [29:0] $end
$upscope $end
$scope module alu $end
$var wire 32 W out [31:0] $end
$var wire 1 * zero $end
$var wire 32 X inB [31:0] $end
$var wire 32 Y inA [31:0] $end
$var wire 3 Z control [2:0] $end
$upscope $end
$scope module aluData_PIPE $end
$var wire 1 " clk $end
$var wire 32 [ d [31:0] $end
$var wire 1 \ enable $end
$var wire 1 ' reset $end
$var reg 32 ] q [31:0] $end
$upscope $end
$scope module branch_mux $end
$var wire 30 ^ out [29:0] $end
$var wire 1 & sel $end
$var wire 30 _ temp1 [29:0] $end
$var wire 30 ` temp2 [29:0] $end
$var wire 30 a B [29:0] $end
$var wire 30 b A [29:0] $end
$upscope $end
$scope module data_memory $end
$var wire 32 c addr [31:0] $end
$var wire 1 " clk $end
$var wire 32 d d_out [31:0] $end
$var wire 32 e data_out [31:0] $end
$var wire 32 f internal_data_in [31:0] $end
$var wire 1 I mem_read $end
$var wire 1 $ reset $end
$var wire 1 g valid_address $end
$var wire 1 F mem_write $end
$var wire 19 h index [18:0] $end
$var wire 32 i data_in [31:0] $end
$var integer 32 j i [31:0] $end
$upscope $end
$scope module decode $end
$var wire 1 M ALUSrc $end
$var wire 1 H MemToReg $end
$var wire 1 A RegDst $end
$var wire 1 @ RegWrite $end
$var wire 6 k funct [5:0] $end
$var wire 1 l nop $end
$var wire 6 m opcode [5:0] $end
$var wire 1 n op0 $end
$var wire 1 F MemWrite $end
$var wire 1 J MemRead $end
$var wire 1 L BEQ $end
$var wire 3 o ALUOp [2:0] $end
$upscope $end
$scope module imem $end
$var wire 30 p addr [29:0] $end
$var wire 32 q data [31:0] $end
$var reg 32 r i [31:0] $end
$upscope $end
$scope module imm_mux $end
$var wire 32 s B [31:0] $end
$var wire 32 t out [31:0] $end
$var wire 1 M sel $end
$var wire 32 u temp1 [31:0] $end
$var wire 32 v temp2 [31:0] $end
$var wire 32 w A [31:0] $end
$upscope $end
$scope module inst_PIPE $end
$var wire 1 " clk $end
$var wire 32 x d [31:0] $end
$var wire 1 y enable $end
$var wire 1 ' reset $end
$var reg 32 z q [31:0] $end
$upscope $end
$scope module mux_forwardA $end
$var wire 32 { B [31:0] $end
$var wire 32 | out [31:0] $end
$var wire 1 ( sel $end
$var wire 32 } temp1 [31:0] $end
$var wire 32 ~ temp2 [31:0] $end
$var wire 32 !" A [31:0] $end
$upscope $end
$scope module mux_forwardB $end
$var wire 32 "" B [31:0] $end
$var wire 32 #" out [31:0] $end
$var wire 1 ) sel $end
$var wire 32 $" temp1 [31:0] $end
$var wire 32 %" temp2 [31:0] $end
$var wire 32 &" A [31:0] $end
$upscope $end
$scope module next_PC_adder $end
$var wire 30 '" in1 [29:0] $end
$var wire 30 (" in2 [29:0] $end
$var wire 30 )" out [29:0] $end
$upscope $end
$scope module rd_mux $end
$var wire 5 *" A [4:0] $end
$var wire 5 +" B [4:0] $end
$var wire 5 ," out [4:0] $end
$var wire 1 A sel $end
$var wire 5 -" temp1 [4:0] $end
$var wire 5 ." temp2 [4:0] $end
$upscope $end
$scope module regWrite_PIPE $end
$var wire 1 " clk $end
$var wire 1 @ d $end
$var wire 1 /" enable $end
$var wire 1 ' reset $end
$var reg 1 ? q $end
$upscope $end
$scope module rf $end
$var wire 1 " clock $end
$var wire 32 0" internal_rdData [31:0] $end
$var wire 1 @ rdWriteEnable $end
$var wire 1 $ reset $end
$var wire 32 1" rsData [31:0] $end
$var wire 5 2" rsNum [4:0] $end
$var wire 32 3" rtData [31:0] $end
$var wire 5 4" rtNum [4:0] $end
$var wire 5 5" rdNum [4:0] $end
$var wire 32 6" rdData [31:0] $end
$var integer 32 7" i [31:0] $end
$upscope $end
$scope module select_PIPE $end
$var wire 1 " clk $end
$var wire 32 8" d [31:0] $end
$var wire 1 9" enable $end
$var wire 1 ' reset $end
$var reg 32 :" q [31:0] $end
$upscope $end
$scope module target_PC_adder $end
$var wire 30 ;" in1 [29:0] $end
$var wire 30 <" in2 [29:0] $end
$var wire 30 =" out [29:0] $end
$upscope $end
$scope module wb_mux $end
$var wire 32 >" A [31:0] $end
$var wire 32 ?" B [31:0] $end
$var wire 32 @" out [31:0] $end
$var wire 1 G sel $end
$var wire 32 A" temp1 [31:0] $end
$var wire 32 B" temp2 [31:0] $end
$upscope $end
$scope module wr_PIPE $end
$var wire 1 " clk $end
$var wire 5 C" d [4:0] $end
$var wire 1 D" enable $end
$var wire 1 ' reset $end
$var reg 5 E" q [4:0] $end
$upscope $end
$upscope $end
$upscope $end
$scope module test $end
$scope module pm $end
$scope module rf $end
$var reg 32 F" \r[0] [31:0] $end
$upscope $end
$upscope $end
$upscope $end
$scope module test $end
$scope module pm $end
$scope module rf $end
$var reg 32 G" \r[1] [31:0] $end
$upscope $end
$upscope $end
$upscope $end
$scope module test $end
$scope module pm $end
$scope module rf $end
$var reg 32 H" \r[2] [31:0] $end
$upscope $end
$upscope $end
$upscope $end
$scope module test $end
$scope module pm $end
$scope module rf $end
$var reg 32 I" \r[3] [31:0] $end
$upscope $end
$upscope $end
$upscope $end
$scope module test $end
$scope module pm $end
$scope module rf $end
$var reg 32 J" \r[4] [31:0] $end
$upscope $end
$upscope $end
$upscope $end
$scope module test $end
$scope module pm $end
$scope module rf $end
$var reg 32 K" \r[5] [31:0] $end
$upscope $end
$upscope $end
$upscope $end
$scope module test $end
$scope module pm $end
$scope module rf $end
$var reg 32 L" \r[6] [31:0] $end
$upscope $end
$upscope $end
$upscope $end
$scope module test $end
$scope module pm $end
$scope module rf $end
$var reg 32 M" \r[7] [31:0] $end
$upscope $end
$upscope $end
$upscope $end
$scope module test $end
$scope module pm $end
$scope module rf $end
$var reg 32 N" \r[8] [31:0] $end
$upscope $end
$upscope $end
$upscope $end
$scope module test $end
$scope module pm $end
$scope module rf $end
$var reg 32 O" \r[9] [31:0] $end
$upscope $end
$upscope $end
$upscope $end
$scope module test $end
$scope module pm $end
$scope module rf $end
$var reg 32 P" \r[10] [31:0] $end
$upscope $end
$upscope $end
$upscope $end
$scope module test $end
$scope module pm $end
$scope module rf $end
$var reg 32 Q" \r[11] [31:0] $end
$upscope $end
$upscope $end
$upscope $end
$scope module test $end
$scope module pm $end
$scope module rf $end
$var reg 32 R" \r[12] [31:0] $end
$upscope $end
$upscope $end
$upscope $end
$scope module test $end
$scope module pm $end
$scope module rf $end
$var reg 32 S" \r[13] [31:0] $end
$upscope $end
$upscope $end
$upscope $end
$scope module test $end
$scope module pm $end
$scope module rf $end
$var reg 32 T" \r[14] [31:0] $end
$upscope $end
$upscope $end
$upscope $end
$scope module test $end
$scope module pm $end
$scope module rf $end
$var reg 32 U" \r[15] [31:0] $end
$upscope $end
$upscope $end
$upscope $end
$scope module test $end
$scope module pm $end
$scope module rf $end
$var reg 32 V" \r[16] [31:0] $end
$upscope $end
$upscope $end
$upscope $end
$scope module test $end
$scope module pm $end
$scope module rf $end
$var reg 32 W" \r[17] [31:0] $end
$upscope $end
$upscope $end
$upscope $end
$scope module test $end
$scope module pm $end
$scope module rf $end
$var reg 32 X" \r[18] [31:0] $end
$upscope $end
$upscope $end
$upscope $end
$scope module test $end
$scope module pm $end
$scope module rf $end
$var reg 32 Y" \r[19] [31:0] $end
$upscope $end
$upscope $end
$upscope $end
$scope module test $end
$scope module pm $end
$scope module rf $end
$var reg 32 Z" \r[20] [31:0] $end
$upscope $end
$upscope $end
$upscope $end
$scope module test $end
$scope module pm $end
$scope module rf $end
$var reg 32 [" \r[21] [31:0] $end
$upscope $end
$upscope $end
$upscope $end
$scope module test $end
$scope module pm $end
$scope module rf $end
$var reg 32 \" \r[22] [31:0] $end
$upscope $end
$upscope $end
$upscope $end
$scope module test $end
$scope module pm $end
$scope module rf $end
$var reg 32 ]" \r[23] [31:0] $end
$upscope $end
$upscope $end
$upscope $end
$scope module test $end
$scope module pm $end
$scope module rf $end
$var reg 32 ^" \r[24] [31:0] $end
$upscope $end
$upscope $end
$upscope $end
$scope module test $end
$scope module pm $end
$scope module rf $end
$var reg 32 _" \r[25] [31:0] $end
$upscope $end
$upscope $end
$upscope $end
$scope module test $end
$scope module pm $end
$scope module rf $end
$var reg 32 `" \r[26] [31:0] $end
$upscope $end
$upscope $end
$upscope $end
$scope module test $end
$scope module pm $end
$scope module rf $end
$var reg 32 a" \r[27] [31:0] $end
$upscope $end
$upscope $end
$upscope $end
$scope module test $end
$scope module pm $end
$scope module rf $end
$var reg 32 b" \r[28] [31:0] $end
$upscope $end
$upscope $end
$upscope $end
$scope module test $end
$scope module pm $end
$scope module rf $end
$var reg 32 c" \r[29] [31:0] $end
$upscope $end
$upscope $end
$upscope $end
$scope module test $end
$scope module pm $end
$scope module rf $end
$var reg 32 d" \r[30] [31:0] $end
$upscope $end
$upscope $end
$upscope $end
$scope module test $end
$scope module pm $end
$scope module rf $end
$var reg 32 e" \r[31] [31:0] $end
$upscope $end
$upscope $end
$upscope $end
$enddefinitions $end
#0
$dumpvars
b10000000000010000000000000000 e"
b10000000000010000000000000000 d"
b10000000000010000000000000000 c"
b10000000000010000000000000000 b"
b10000000000010000000000000000 a"
b10000000000010000000000000000 `"
b10000000000010000000000000000 _"
b10000000000010000000000000000 ^"
b10000000000010000000000000000 ]"
b10000000000010000000000000000 \"
b10000000000010000000000000000 ["
b10000000000010000000000000000 Z"
b10000000000010000000000000000 Y"
b10000000000010000000000000000 X"
b10000000000010000000000000000 W"
b10000000000010000000000000000 V"
b10000000000010000000000000000 U"
b10000000000010000000000000000 T"
b10000000000010000000000000000 S"
b10000000000010000000000000000 R"
b10000000000010000000000000000 Q"
b10000000000010000000000000000 P"
b10000000000010000000000000000 O"
b10000000000010000000000000000 N"
b10000000000010000000000000000 M"
b10000000000010000000000000000 L"
b10000000000010000000000000000 K"
b10000000000010000000000000000 J"
b10000000000010000000000000000 I"
b10000000000010000000000000000 H"
b10000000000010000000000000000 G"
b0 F"
bx E"
1D"
bx C"
bx B"
bx A"
bx @"
bx ?"
bx >"
bx ="
bx <"
bx ;"
bx :"
19"
bx 8"
b100000 7"
bx 6"
bx 5"
bx 4"
bx 3"
bx 2"
bx 1"
bx 0"
1/"
bx ."
bx -"
bx ,"
bx +"
bx *"
bx )"
b1 ("
bx '"
bx &"
bx %"
bx $"
bx #"
bx ""
bx !"
bx ~
bx }
bx |
bx {
bx z
1y
bx x
bx w
bx v
bx u
bx t
bx s
b100000000 r
bx q
bx p
bx o
xn
bx m
xl
bx k
b1000000000000000000 j
bx i
bx h
xg
bx f
bx e
bx d
bx c
bx b
bx a
bx `
bx _
bx ^
bx ]
1\
bx [
bx Z
bx Y
bx X
bx W
bx V
bx U
1T
bx S
bx R
1Q
1P
1O
bx N
xM
xL
bx K
xJ
xI
xH
xG
xF
bx00 E
bx D
bx C
bx B
xA
x@
x?
bx >
bx =
bx <
bx ;
bx :
bx 9
bx 8
bx 7
bx 6
bx 5
bx 4
bx 3
bx 2
bx 1
bx 0
bx /
bx .
bx -
bx ,
bx +
x*
x)
x(
1'
x&
b100000 %
1$
0#
0"
bx00 !
$end
#6
b0 ,
b0 ,"
b0 C"
b0 ."
b0 -"
b0 <"
b0 v
b11011110101011011011111011101111 d
b0 h
b0 -
b0 6"
b0 @"
b100000000000000000000 '"
b100000000000000000000 p
b0 <
b0 k
1n
b0 6
b0 m
b0 5
b0 +"
b0 0
b0 *"
b0 4"
b0 1
b0 2"
b0 ;
b0 s
0g
b0 ~
b0 %"
b0 A"
b0 B"
0)
0(
b10000000000000000000000 E
b10000000000000000000000 !
b100000000000000000000 V
b0 D
b0 S
b0 ;"
b0 :
b0 z
b0 =
b0 ]
b0 c
b0 {
b0 ""
b0 >"
b0 +
b0 5"
b0 E"
0G
0?
0I
b0 .
b0 :"
1"
#7
b0 K
b0 X
b0 t
b0 u
b0 /
b0 w
b0 #"
b0 8"
b0 2
b0 Y
b0 |
b0 $"
b0 }
x'
b0 0"
b0 3
b0 i
b0 &"
b0 3"
b0 4
b0 !"
b0 1"
0$
#8
0@
b100000000000000000001 7
b100000000000000000001 U
b100000000000000000001 ^
0'
b0 `
b100000000000000000001 _
0&
1A
0M
1*
b0 N
b0 Z
b0 o
1l
b0 B
b0 a
b0 ="
b100000000000000000001 C
b100000000000000000001 R
b100000000000000000001 b
b100000000000000000001 )"
0L
0H
0J
0F
#9
b0 >
b0 W
b0 [
b10001110100000100000000000000000 9
b10001110100000100000000000000000 q
b10001110100000100000000000000000 x
b0 8
b0 e
b0 ?"
#10
b0 f
#12
0"
#18
0n
b100011 6
b100011 m
b10 0
b10 *"
b10 4"
b10100 1
b10100 2"
b100000000000000000001 '"
b100000000000000000001 p
b10001110100000100000000000000000 :
b10001110100000100000000000000000 z
b100000000000000000001 D
b100000000000000000001 S
b100000000000000000001 ;"
b10000000000000000000100 E
b10000000000000000000100 !
b100000000000000000001 V
1"
#19
b10000000000010000000000000000 K
b10000000000010000000000000000 X
b10000000000010000000000000000 t
b10000000000010000000000000000 u
b10000000000010000000000000000 /
b10000000000010000000000000000 w
b10000000000010000000000000000 #"
b10000000000010000000000000000 8"
b10000000000010000000000000000 2
b10000000000010000000000000000 Y
b10000000000010000000000000000 |
b10000000000010000000000000000 $"
b10000000000010000000000000000 }
b10000000000010000000000000000 3
b10000000000010000000000000000 i
b10000000000010000000000000000 &"
b10000000000010000000000000000 3"
b10000000000010000000000000000 4
b10000000000010000000000000000 !"
b10000000000010000000000000000 1"
#20
b10 ,
b10 ,"
b10 C"
b0 K
b0 X
b0 t
1@
b10 -"
b0 u
b100000000000000000010 7
b100000000000000000010 U
b100000000000000000010 ^
0A
1M
b100000000000000000010 _
0l
1H
1J
b100000000000000000010 C
b100000000000000000010 R
b100000000000000000010 b
b100000000000000000010 )"
b100000000000000000001 B
b100000000000000000001 a
b100000000000000000001 ="
#21
0*
b10001110100000110000000000000100 9
b10001110100000110000000000000100 q
b10001110100000110000000000000100 x
#22
b10000000000010000000000000000 >
b10000000000010000000000000000 W
b10000000000010000000000000000 [
b10000000000010000000000000000 f
#24
0"
#30
b11 ,
b11 ,"
b11 C"
b100 K
b100 X
b100 t
b11 -"
b100 <"
b100 v
b1 d
b100000000000000 h
b10000000000010000000000000000 $"
b100000000000000000010 '"
b100000000000000000010 p
b100 <
b100 k
b11 0
b11 *"
b11 4"
b100 ;
b100 s
1g
b0 %"
0)
b10000000000000000001000 E
b10000000000000000001000 !
b100000000000000000010 V
b100000000000000000010 D
b100000000000000000010 S
b100000000000000000010 ;"
b10001110100000110000000000000100 :
b10001110100000110000000000000100 z
b10000000000010000000000000000 =
b10000000000010000000000000000 ]
b10000000000010000000000000000 c
b10000000000010000000000000000 {
b10000000000010000000000000000 ""
b10000000000010000000000000000 >"
b10 +
b10 5"
b10 E"
1G
1?
1I
b10000000000010000000000000000 .
b10000000000010000000000000000 :"
1"
#32
b100000000000000000011 7
b100000000000000000011 U
b100000000000000000011 ^
b100000000000000000011 _
b10000000000010000000000000100 >
b10000000000010000000000000100 W
b10000000000010000000000000100 [
b100000000000000000011 C
b100000000000000000011 R
b100000000000000000011 b
b100000000000000000011 )"
b100000000000000000110 B
b100000000000000000110 a
b100000000000000000110 ="
#33
b1 -
b1 6"
b1 @"
b1 B"
b10001110100001000000000000001000 9
b10001110100001000000000000001000 q
b10001110100001000000000000001000 x
b1 8
b1 e
b1 ?"
#34
b1 0"
#36
0"
#42
b100 ,
b100 ,"
b100 C"
b1000 K
b1000 X
b1000 t
b11111111 d
b100000000000001 h
b100 -"
b1000 <"
b1000 v
b1000 <
b1000 k
b100 0
b100 *"
b100 4"
b1000 ;
b1000 s
b100000000000000000011 '"
b100000000000000000011 p
b11 +
b11 5"
b11 E"
b10000000000010000000000000100 =
b10000000000010000000000000100 ]
b10000000000010000000000000100 c
b10000000000010000000000000100 {
b10000000000010000000000000100 ""
b10000000000010000000000000100 >"
b10001110100001000000000000001000 :
b10001110100001000000000000001000 z
b100000000000000000011 D
b100000000000000000011 S
b100000000000000000011 ;"
b1 H"
b10000000000000000001100 E
b10000000000000000001100 !
b100000000000000000011 V
1"
#44
b100000000000000000100 7
b100000000000000000100 U
b100000000000000000100 ^
b100000000000000000100 _
b10000000000010000000000001000 >
b10000000000010000000000001000 W
b10000000000010000000000001000 [
b100000000000000000100 C
b100000000000000000100 R
b100000000000000000100 b
b100000000000000000100 )"
b100000000000000001011 B
b100000000000000001011 a
b100000000000000001011 ="
#45
b11111111 -
b11111111 6"
b11111111 @"
b11111111 B"
b11111111 8
b11111111 e
b11111111 ?"
b10001110100001010000000000001100 9
b10001110100001010000000000001100 q
b10001110100001010000000000001100 x
#46
b11111111 0"
#48
0"
#54
b101 ,
b101 ,"
b101 C"
b1100 K
b1100 X
b1100 t
b101 -"
b1100 <"
b1100 v
b10000000000 d
b100000000000010 h
b10000000000010000000000000000 /
b10000000000010000000000000000 w
b10000000000010000000000000000 #"
b10000000000010000000000000000 8"
b10000000000010000000000000000 $"
b100000000000000000100 '"
b100000000000000000100 p
b1100 <
b1100 k
b101 0
b101 *"
b101 4"
b1100 ;
b1100 s
b0 %"
0)
b10000000000000000010000 E
b10000000000000000010000 !
b100000000000000000100 V
b11111111 I"
b100000000000000000100 D
b100000000000000000100 S
b100000000000000000100 ;"
b10001110100001010000000000001100 :
b10001110100001010000000000001100 z
b10000000000010000000000001000 =
b10000000000010000000000001000 ]
b10000000000010000000000001000 c
b10000000000010000000000001000 {
b10000000000010000000000001000 ""
b10000000000010000000000001000 >"
b100 +
b100 5"
b100 E"
1"
#56
b100000000000000000101 7
b100000000000000000101 U
b100000000000000000101 ^
b100000000000000000101 _
b10000000000010000000000001100 >
b10000000000010000000000001100 W
b10000000000010000000000001100 [
b100000000000000000101 C
b100000000000000000101 R
b100000000000000000101 b
b100000000000000000101 )"
b100000000000000010000 B
b100000000000000010000 a
b100000000000000010000 ="
#57
b10000000000 -
b10000000000 6"
b10000000000 @"
b10000000000 B"
b10000000000 8
b10000000000 e
b10000000000 ?"
b10001110100001100000000000010000 9
b10001110100001100000000000010000 q
b10001110100001100000000000010000 x
#58
b10000000000 0"
#60
0"
#66
b110 ,
b110 ,"
b110 C"
b10000 K
b10000 X
b10000 t
b1100100 d
b100000000000011 h
b110 -"
b10000 <"
b10000 v
b10000 <
b10000 k
b110 0
b110 *"
b110 4"
b10000 ;
b10000 s
b100000000000000000101 '"
b100000000000000000101 p
b101 +
b101 5"
b101 E"
b10000000000010000000000001100 =
b10000000000010000000000001100 ]
b10000000000010000000000001100 c
b10000000000010000000000001100 {
b10000000000010000000000001100 ""
b10000000000010000000000001100 >"
b10001110100001100000000000010000 :
b10001110100001100000000000010000 z
b100000000000000000101 D
b100000000000000000101 S
b100000000000000000101 ;"
b10000000000 J"
b10000000000000000010100 E
b10000000000000000010100 !
b100000000000000000101 V
1"
#68
b100000000000000000110 7
b100000000000000000110 U
b100000000000000000110 ^
b100000000000000000110 _
b10000000000010000000000010000 >
b10000000000010000000000010000 W
b10000000000010000000000010000 [
b100000000000000000110 C
b100000000000000000110 R
b100000000000000000110 b
b100000000000000000110 )"
b100000000000000010101 B
b100000000000000010101 a
b100000000000000010101 ="
#69
b1100100 -
b1100100 6"
b1100100 @"
b1100100 B"
b1100100 8
b1100100 e
b1100100 ?"
b10000100011100000100000 9
b10000100011100000100000 q
b10000100011100000100000 x
#70
b1100100 0"
#72
0"
#78
b10 ,
b10 ,"
b10 C"
b11100000100000 K
b11100000100000 X
b11100000100000 t
b10 -"
b11100000100000 <"
b11100000100000 v
b11001000 d
b100000000000100 h
b10000000000010000000000000000 /
b10000000000010000000000000000 w
b10000000000010000000000000000 #"
b10000000000010000000000000000 8"
b10000000000010000000000000000 $"
b100000000000000000110 '"
b100000000000000000110 p
b100000 <
b100000 k
1n
b0 6
b0 m
b111 5
b111 +"
b10 0
b10 *"
b10 4"
b10 1
b10 2"
b11100000100000 ;
b11100000100000 s
b0 %"
0)
b10000000000000000011000 E
b10000000000000000011000 !
b100000000000000000110 V
b1100100 K"
b100000000000000000110 D
b100000000000000000110 S
b100000000000000000110 ;"
b10000100011100000100000 :
b10000100011100000100000 z
b10000000000010000000000010000 =
b10000000000010000000000010000 ]
b10000000000010000000000010000 c
b10000000000010000000000010000 {
b10000000000010000000000010000 ""
b10000000000010000000000010000 >"
b110 +
b110 5"
b110 E"
1"
#79
b1 /
b1 w
b1 #"
b1 8"
b1 2
b1 Y
b1 |
b1 $"
b1 }
b1 3
b1 i
b1 &"
b1 3"
b1 4
b1 !"
b1 1"
#80
b111 ,
b111 ,"
b111 C"
b1 K
b1 X
b1 t
b100000000000000000111 7
b100000000000000000111 U
b100000000000000000111 ^
b0 -"
b111 ."
b1 u
b0 v
b100000000000000000111 _
1A
0M
b100000000000000000111 C
b100000000000000000111 R
b100000000000000000111 b
b100000000000000000111 )"
0H
0J
b100000011100000100110 B
b100000011100000100110 a
b100000011100000100110 ="
#81
b11001000 -
b11001000 6"
b11001000 @"
b11001000 B"
1*
b11001000 8
b11001000 e
b11001000 ?"
b100000110100000000100000 9
b100000110100000000100000 q
b100000110100000000100000 x
#82
b11001000 0"
b10 >
b10 W
b10 [
b1 f
#84
0"
#90
b1000 ,
b1000 ,"
b1000 C"
b11011110101011011011111011101111 d
b0 h
b10 -
b10 6"
b10 @"
b1000 ."
b100000000100000 <"
b0 B"
0g
b10 A"
b1000 5
b1000 +"
b11 0
b11 *"
b11 4"
b100 1
b100 2"
b100000000100000 ;
b100000000100000 s
b100000000000000000111 '"
b100000000000000000111 p
b1 .
b1 :"
0I
0G
b111 +
b111 5"
b111 E"
b10 =
b10 ]
b10 c
b10 {
b10 ""
b10 >"
b100000110100000000100000 :
b100000110100000000100000 z
b100000000000000000111 D
b100000000000000000111 S
b100000000000000000111 ;"
b11001000 L"
b10000000000000000011100 E
b10000000000000000011100 !
b100000000000000000111 V
1"
#91
b11111111 K
b11111111 X
b11111111 t
b11111111 u
b11111111 /
b11111111 w
b11111111 #"
b11111111 8"
b10000000000 2
b10000000000 Y
b10000000000 |
b11111111 $"
b10000000000 }
b10 0"
b11111111 3
b11111111 i
b11111111 &"
b11111111 3"
b10000000000 4
b10000000000 !"
b10000000000 1"
#92
b100000000000000001000 7
b100000000000000001000 U
b100000000000000001000 ^
b100000000000000001000 _
0*
b100000000000000001000 C
b100000000000000001000 R
b100000000000000001000 b
b100000000000000001000 )"
b100000100000000100111 B
b100000100000000100111 a
b100000100000000100111 ="
#93
b10011111111 >
b10011111111 W
b10011111111 [
b101000000100100000100010 9
b101000000100100000100010 q
b101000000100100000100010 x
b0 8
b0 e
b0 ?"
#94
b11111111 f
#96
0"
#102
b1001 ,
b1001 ,"
b1001 C"
b1001 ."
b100100000100010 <"
b100111111 h
b10011111111 -
b10011111111 6"
b10011111111 @"
b100000000000000001000 '"
b100000000000000001000 p
b100010 <
b100010 k
b1001 5
b1001 +"
b0 0
b0 *"
b0 4"
b101 1
b101 2"
b100100000100010 ;
b100100000100010 s
b10011111111 A"
b10000000000000000100000 E
b10000000000000000100000 !
b100000000000000001000 V
b10 M"
b100000000000000001000 D
b100000000000000001000 S
b100000000000000001000 ;"
b101000000100100000100010 :
b101000000100100000100010 z
b10011111111 =
b10011111111 ]
b10011111111 c
b10011111111 {
b10011111111 ""
b10011111111 >"
b1000 +
b1000 5"
b1000 E"
b11111111 .
b11111111 :"
1"
#103
b0 K
b0 X
b0 t
b0 u
b0 /
b0 w
b0 #"
b0 8"
b1100100 2
b1100100 Y
b1100100 |
b0 $"
b1100100 }
b10011111111 0"
b0 3
b0 i
b0 &"
b0 3"
b1100100 4
b1100100 !"
b1100100 1"
#104
b100000000000000001001 7
b100000000000000001001 U
b100000000000000001001 ^
b100000000000000001001 _
b1 N
b1 Z
b1 o
b100000000000000001001 C
b100000000000000001001 R
b100000000000000001001 b
b100000000000000001001 )"
b100000100100000101010 B
b100000100100000101010 a
b100000100100000101010 ="
#105
b1100100 >
b1100100 W
b1100100 [
b111000100101000000100010 9
b111000100101000000100010 q
b111000100101000000100010 x
#106
b0 f
#108
0"
#114
b1010 ,
b1010 ,"
b1010 C"
b11001 h
b1100100 -
b1100100 6"
b1100100 @"
b1010 ."
b101000000100010 <"
b1100100 A"
b1010 5
b1010 +"
b10 0
b10 *"
b10 4"
b111 1
b111 2"
b101000000100010 ;
b101000000100010 s
b100000000000000001001 '"
b100000000000000001001 p
b0 .
b0 :"
b1001 +
b1001 5"
b1001 E"
b1100100 =
b1100100 ]
b1100100 c
b1100100 {
b1100100 ""
b1100100 >"
b111000100101000000100010 :
b111000100101000000100010 z
b100000000000000001001 D
b100000000000000001001 S
b100000000000000001001 ;"
b10011111111 N"
b10000000000000000100100 E
b10000000000000000100100 !
b100000000000000001001 V
1"
#115
b1 K
b1 X
b1 t
b1 u
b1 /
b1 w
b1 #"
b1 8"
b10 2
b10 Y
b10 |
b1 $"
b10 }
b1100100 0"
b1 3
b1 i
b1 &"
b1 3"
b10 4
b10 !"
b10 1"
#116
b100000000000000001010 7
b100000000000000001010 U
b100000000000000001010 ^
b100000000000000001010 _
b100000000000000001010 C
b100000000000000001010 R
b100000000000000001010 b
b100000000000000001010 )"
b100000101000000101011 B
b100000101000000101011 a
b100000101000000101011 ="
#117
b1 >
b1 W
b1 [
b10101110100010000000000000000000 9
b10101110100010000000000000000000 q
b10101110100010000000000000000000 x
#118
b1 f
#120
0"
#126
b0 ,
b0 ,"
b0 C"
b0 ."
b0 <"
b0 h
b1 -
b1 6"
b1 @"
b100000000000000001010 '"
b100000000000000001010 p
b0 <
b0 k
0n
b101011 6
b101011 m
b0 5
b0 +"
b1000 0
b1000 *"
b1000 4"
b10100 1
b10100 2"
b0 ;
b0 s
b1 A"
b10000000000000000101000 E
b10000000000000000101000 !
b100000000000000001010 V
b1100100 O"
b100000000000000001010 D
b100000000000000001010 S
b100000000000000001010 ;"
b10101110100010000000000000000000 :
b10101110100010000000000000000000 z
b1 =
b1 ]
b1 c
b1 {
b1 ""
b1 >"
b1010 +
b1010 5"
b1010 E"
b1 .
b1 :"
1"
#127
b10011111111 K
b10011111111 X
b10011111111 t
b10011111111 u
b10011111111 /
b10011111111 w
b10011111111 #"
b10011111111 8"
b10000000000010000000000000000 2
b10000000000010000000000000000 Y
b10000000000010000000000000000 |
b10011111111 $"
b10000000000010000000000000000 }
b1 0"
b10011111111 3
b10011111111 i
b10011111111 &"
b10011111111 3"
b10000000000010000000000000000 4
b10000000000010000000000000000 !"
b10000000000010000000000000000 1"
#128
b0 K
b0 X
b0 t
0@
b100000000000000001011 7
b100000000000000001011 U
b100000000000000001011 ^
b0 u
b100000000000000001011 _
1M
b0 N
b0 Z
b0 o
b100000000000000001011 C
b100000000000000001011 R
b100000000000000001011 b
b100000000000000001011 )"
1F
b100000000000000001010 B
b100000000000000001010 a
b100000000000000001010 ="
#129
b10001110100010110000000000000000 9
b10001110100010110000000000000000 q
b10001110100010110000000000000000 x
#130
b10000000000010000000000000000 >
b10000000000010000000000000000 W
b10000000000010000000000000000 [
b10011111111 f
#132
0"
